rabbit_project/RabbitWaveForm.vcd
$timescale 20 ms
$end
$var wire 1 in1_row[0] in1_row[0] $end
$var wire 1 in1_row[1] in1_row[1] $end
$var wire 1 in1_row[2] in1_row[2] $end
$var wire 1 in1_row[3] in1_row[3] $end
$var wire 1 in1_col[0] in1_col[0] $end
$var wire 1 in1_col[1] in1_col[1] $end
$var wire 1 in1_col[2] in1_col[2] $end
$var wire 1 in1_col[3] in1_col[3] $end
$var wire 1 in2_row[0] in2_row[0] $end
$var wire 1 in2_row[1] in2_row[1] $end
$var wire 1 in2_row[2] in2_row[2] $end
$var wire 1 in2_row[3] in2_row[3] $end
$var wire 1 in2_col[0] in2_col[0] $end
$var wire 1 in2_col[1] in2_col[1] $end
$var wire 1 in2_col[2] in2_col[2] $end
$var wire 1 in2_col[3] in2_col[3] $end
$var wire 1 rst_n rst_n $end
$var wire 1 data_type data_type $end
$var wire 1 enter enter $end
$var wire 1 ce ce $end
$var wire 1 disp1_seg[0] disp1_seg[0] $end
$var wire 1 disp1_seg[1] disp1_seg[1] $end
$var wire 1 disp1_seg[2] disp1_seg[2] $end
$var wire 1 disp1_seg[3] disp1_seg[3] $end
$var wire 1 disp1_seg[4] disp1_seg[4] $end
$var wire 1 disp1_seg[5] disp1_seg[5] $end
$var wire 1 disp1_seg[6] disp1_seg[6] $end
$var wire 1 disp1_sel[0] disp1_sel[0] $end
$var wire 1 disp1_sel[1] disp1_sel[1] $end
$var wire 1 disp1_sel[2] disp1_sel[2] $end
$var wire 1 disp1_sel[3] disp1_sel[3] $end
$var wire 1 disp1_sel[4] disp1_sel[4] $end
$var wire 1 disp1_sel[5] disp1_sel[5] $end
$var wire 1 disp1_sel[6] disp1_sel[6] $end
$var wire 1 disp1_sel[7] disp1_sel[7] $end
$var wire 1 disp2_seg[0] disp2_seg[0] $end
$var wire 1 disp2_seg[1] disp2_seg[1] $end
$var wire 1 disp2_seg[2] disp2_seg[2] $end
$var wire 1 disp2_seg[3] disp2_seg[3] $end
$var wire 1 disp2_seg[4] disp2_seg[4] $end
$var wire 1 disp2_seg[5] disp2_seg[5] $end
$var wire 1 disp2_seg[6] disp2_seg[6] $end
$var wire 1 disp2_sel[0] disp2_sel[0] $end
$var wire 1 disp2_sel[1] disp2_sel[1] $end
$var wire 1 disp2_sel[2] disp2_sel[2] $end
$var wire 1 disp2_sel[3] disp2_sel[3] $end
$var wire 1 disp2_sel[4] disp2_sel[4] $end
$var wire 1 disp2_sel[5] disp2_sel[5] $end
$var wire 1 disp2_sel[6] disp2_sel[6] $end
$var wire 1 disp2_sel[7] disp2_sel[7] $end
$var wire 1 out_seg[0] out_seg[0] $end
$var wire 1 out_seg[1] out_seg[1] $end
$var wire 1 out_seg[2] out_seg[2] $end
$var wire 1 out_seg[3] out_seg[3] $end
$var wire 1 out_seg[4] out_seg[4] $end
$var wire 1 out_seg[5] out_seg[5] $end
$var wire 1 out_seg[6] out_seg[6] $end
$var wire 1 out_sel[0] out_sel[0] $end
$var wire 1 out_sel[1] out_sel[1] $end
$var wire 1 out_sel[2] out_sel[2] $end
$var wire 1 out_sel[3] out_sel[3] $end
$var wire 1 out_sel[4] out_sel[4] $end
$var wire 1 out_sel[5] out_sel[5] $end
$var wire 1 out_sel[6] out_sel[6] $end
$var wire 1 out_sel[7] out_sel[7] $end
$var wire 1 ready ready $end
$var wire 1 overflow overflow $end
$var wire 1 error error $end
$enddefinitions $end
$dumpvars
b0 in1_row[0]
b0 in1_row[1]
b0 in1_row[2]
b0 in1_row[3]
b0 in1_col[0]
b0 in1_col[1]
b0 in1_col[2]
b0 in1_col[3]
b0 in2_row[0]
b0 in2_row[1]
b0 in2_row[2]
b0 in2_row[3]
b0 in2_col[0]
b0 in2_col[1]
b0 in2_col[2]
b0 in2_col[3]
b0 rst_n
b0 data_type
b0 enter
b0 ce
b0 disp1_seg[0]
b0 disp1_seg[1]
b0 disp1_seg[2]
b0 disp1_seg[3]
b0 disp1_seg[4]
b0 disp1_seg[5]
b0 disp1_seg[6]
b0 disp1_sel[0]
b0 disp1_sel[1]
b0 disp1_sel[2]
b0 disp1_sel[3]
b0 disp1_sel[4]
b0 disp1_sel[5]
b0 disp1_sel[6]
b0 disp1_sel[7]
b0 disp2_seg[0]
b0 disp2_seg[1]
b0 disp2_seg[2]
b0 disp2_seg[3]
b0 disp2_seg[4]
b0 disp2_seg[5]
b0 disp2_seg[6]
b0 disp2_sel[0]
b0 disp2_sel[1]
b0 disp2_sel[2]
b0 disp2_sel[3]
b0 disp2_sel[4]
b0 disp2_sel[5]
b0 disp2_sel[6]
b0 disp2_sel[7]
b0 out_seg[0]
b0 out_seg[1]
b0 out_seg[2]
b0 out_seg[3]
b0 out_seg[4]
b0 out_seg[5]
b0 out_seg[6]
b0 out_sel[0]
b0 out_sel[1]
b0 out_sel[2]
b0 out_sel[3]
b0 out_sel[4]
b0 out_sel[5]
b0 out_sel[6]
b0 out_sel[7]
b0 ready
b0 overflow
b0 error
$end
#0
b1 disp1_sel[0]
b1 disp2_sel[0]
b1 out_sel[0]
b1 ready
b1 rst_n
#1
b1 disp1_seg[1]
b1 disp1_seg[2]
b1 disp1_seg[3]
b1 disp1_seg[4]
b1 disp1_seg[5]
b1 disp1_seg[6]
b0 disp1_sel[0]
b1 disp1_sel[1]
b1 disp2_seg[1]
b1 disp2_seg[2]
b1 disp2_seg[3]
b1 disp2_seg[4]
b1 disp2_seg[5]
b1 disp2_seg[6]
b0 disp2_sel[0]
b1 disp2_sel[1]
b1 out_seg[1]
b1 out_seg[2]
b1 out_seg[3]
b1 out_seg[4]
b1 out_seg[5]
b1 out_seg[6]
b0 out_sel[0]
b1 out_sel[1]
b1 overflow
#2
b0 disp1_sel[1]
b1 disp1_sel[2]
b0 disp2_sel[1]
b1 disp2_sel[2]
b0 out_sel[1]
b1 out_sel[2]
#3
b0 disp1_sel[2]
b1 disp1_sel[3]
b0 disp2_sel[2]
b1 disp2_sel[3]
b0 out_sel[2]
b1 out_sel[3]
#4
b0 disp1_seg[1]
b0 disp1_seg[2]
b0 disp1_seg[3]
b0 disp1_seg[4]
b0 disp1_seg[5]
b0 disp1_seg[6]
b0 disp1_sel[3]
b1 disp1_sel[4]
b0 disp2_seg[1]
b0 disp2_seg[2]
b0 disp2_seg[3]
b0 disp2_seg[4]
b0 disp2_seg[5]
b0 disp2_seg[6]
b0 disp2_sel[3]
b1 disp2_sel[4]
b0 out_seg[1]
b0 out_seg[2]
b0 out_seg[3]
b0 out_seg[4]
b0 out_seg[5]
b0 out_seg[6]
b0 out_sel[3]
b1 out_sel[4]
#5
b0 disp1_sel[4]
b1 disp1_sel[5]
b0 disp2_sel[4]
b1 disp2_sel[5]
b0 out_sel[4]
b1 out_sel[5]
#6
b0 disp1_sel[5]
b1 disp1_sel[6]
b0 disp2_sel[5]
b1 disp2_sel[6]
b0 out_sel[5]
b1 out_sel[6]
#7
b0 disp1_sel[6]
b1 disp1_sel[7]
b0 disp2_sel[6]
b1 disp2_sel[7]
b0 out_sel[6]
b1 out_sel[7]
#8
b1 disp1_seg[1]
b1 disp1_seg[2]
b1 disp1_seg[3]
b1 disp1_seg[4]
b1 disp1_seg[5]
b1 disp1_seg[6]
b1 disp1_sel[0]
b0 disp1_sel[7]
b1 disp2_seg[1]
b1 disp2_seg[2]
b1 disp2_seg[3]
b1 disp2_seg[4]
b1 disp2_seg[5]
b1 disp2_seg[6]
b1 disp2_sel[0]
b0 disp2_sel[7]
b1 out_seg[1]
b1 out_seg[2]
b1 out_seg[3]
b1 out_seg[4]
b1 out_seg[5]
b1 out_seg[6]
b1 out_sel[0]
b0 out_sel[7]
#9
b0 disp1_sel[0]
b1 disp1_sel[1]
b0 disp2_sel[0]
b1 disp2_sel[1]
b0 out_sel[0]
b1 out_sel[1]
#10
b0 disp1_sel[1]
b1 disp1_sel[2]
b0 disp2_sel[1]
b1 disp2_sel[2]
b0 out_sel[1]
b1 out_sel[2]
#11
b0 disp1_sel[2]
b1 disp1_sel[3]
b0 disp2_sel[2]
b1 disp2_sel[3]
b0 out_sel[2]
b1 out_sel[3]
#12
b0 disp1_seg[1]
b0 disp1_seg[2]
b0 disp1_seg[3]
b0 disp1_seg[4]
b0 disp1_seg[5]
b0 disp1_seg[6]
b0 disp1_sel[3]
b1 disp1_sel[4]
b0 disp2_seg[1]
b0 disp2_seg[2]
b0 disp2_seg[3]
b0 disp2_seg[4]
b0 disp2_seg[5]
b0 disp2_seg[6]
b0 disp2_sel[3]
b1 disp2_sel[4]
b0 out_seg[1]
b0 out_seg[2]
b0 out_seg[3]
b0 out_seg[4]
b0 out_seg[5]
b0 out_seg[6]
b0 out_sel[3]
b1 out_sel[4]
#13
b0 disp1_sel[4]
b1 disp1_sel[5]
b0 disp2_sel[4]
b1 disp2_sel[5]
b0 out_sel[4]
b1 out_sel[5]
#14
b0 disp1_sel[5]
b1 disp1_sel[6]
b0 disp2_sel[5]
b1 disp2_sel[6]
b0 out_sel[5]
b1 out_sel[6]
#15
b0 disp1_sel[6]
b1 disp1_sel[7]
b0 disp2_sel[6]
b1 disp2_sel[7]
b0 out_sel[6]
b1 out_sel[7]
#16
b1 disp1_seg[1]
b1 disp1_seg[2]
b1 disp1_seg[3]
b1 disp1_seg[4]
b1 disp1_seg[5]
b1 disp1_seg[6]
b1 disp1_sel[0]
b0 disp1_sel[7]
b1 disp2_seg[1]
b1 disp2_seg[2]
b1 disp2_seg[3]
b1 disp2_seg[4]
b1 disp2_seg[5]
b1 disp2_seg[6]
b1 disp2_sel[0]
b0 disp2_sel[7]
b1 out_seg[1]
b1 out_seg[2]
b1 out_seg[3]
b1 out_seg[4]
b1 out_seg[5]
b1 out_seg[6]
b1 out_sel[0]
b0 out_sel[7]
#17
b0 disp1_sel[0]
b1 disp1_sel[1]
b0 disp2_sel[0]
b1 disp2_sel[1]
b0 out_sel[0]
b1 out_sel[1]
#18
b0 disp1_sel[1]
b1 disp1_sel[2]
b0 disp2_sel[1]
b1 disp2_sel[2]
b0 out_sel[1]
b1 out_sel[2]
#19
b0 disp1_sel[2]
b1 disp1_sel[3]
b0 disp2_sel[2]
b1 disp2_sel[3]
b0 out_sel[2]
b1 out_sel[3]
#20
b0 disp1_seg[1]
b0 disp1_seg[2]
b0 disp1_seg[3]
b0 disp1_seg[4]
b0 disp1_seg[5]
b0 disp1_seg[6]
b0 disp1_sel[3]
b1 disp1_sel[4]
b0 disp2_seg[1]
b0 disp2_seg[2]
b0 disp2_seg[3]
b0 disp2_seg[4]
b0 disp2_seg[5]
b0 disp2_seg[6]
b0 disp2_sel[3]
b1 disp2_sel[4]
b0 out_seg[1]
b0 out_seg[2]
b0 out_seg[3]
b0 out_seg[4]
b0 out_seg[5]
b0 out_seg[6]
b0 out_sel[3]
b1 out_sel[4]
#21
b0 disp1_sel[4]
b1 disp1_sel[5]
b0 disp2_sel[4]
b1 disp2_sel[5]
b0 out_sel[4]
b1 out_sel[5]
#22
b0 disp1_sel[5]
b1 disp1_sel[6]
b0 disp2_sel[5]
b1 disp2_sel[6]
b0 out_sel[5]
b1 out_sel[6]
#23
b0 disp1_sel[6]
b1 disp1_sel[7]
b0 disp2_sel[6]
b1 disp2_sel[7]
b0 out_sel[6]
b1 out_sel[7]
#24
b1 disp1_seg[1]
b1 disp1_seg[2]
b1 disp1_seg[3]
b1 disp1_seg[4]
b1 disp1_seg[5]
b1 disp1_seg[6]
b1 disp1_sel[0]
b0 disp1_sel[7]
b1 disp2_seg[1]
b1 disp2_seg[2]
b1 disp2_seg[3]
b1 disp2_seg[4]
b1 disp2_seg[5]
b1 disp2_seg[6]
b1 disp2_sel[0]
b0 disp2_sel[7]
b1 out_seg[1]
b1 out_seg[2]
b1 out_seg[3]
b1 out_seg[4]
b1 out_seg[5]
b1 out_seg[6]
b1 out_sel[0]
b0 out_sel[7]
#25
b0 disp1_sel[0]
b1 disp1_sel[1]
b0 disp2_sel[0]
b1 disp2_sel[1]
b0 out_sel[0]
b1 out_sel[1]
#26
b0 disp1_sel[1]
b1 disp1_sel[2]
b0 disp2_sel[1]
b1 disp2_sel[2]
b0 out_sel[1]
b1 out_sel[2]
#27
b0 disp1_sel[2]
b1 disp1_sel[3]
b0 disp2_sel[2]
b1 disp2_sel[3]
b0 out_sel[2]
b1 out_sel[3]
#28
b0 disp1_seg[1]
b0 disp1_seg[2]
b0 disp1_seg[3]
b0 disp1_seg[4]
b0 disp1_seg[5]
b0 disp1_seg[6]
b0 disp1_sel[3]
b1 disp1_sel[4]
b0 disp2_seg[1]
b0 disp2_seg[2]
b0 disp2_seg[3]
b0 disp2_seg[4]
b0 disp2_seg[5]
b0 disp2_seg[6]
b0 disp2_sel[3]
b1 disp2_sel[4]
b0 out_seg[1]
b0 out_seg[2]
b0 out_seg[3]
b0 out_seg[4]
b0 out_seg[5]
b0 out_seg[6]
b0 out_sel[3]
b1 out_sel[4]
#29
b0 disp1_sel[4]
b1 disp1_sel[5]
b0 disp2_sel[4]
b1 disp2_sel[5]
b0 out_sel[4]
b1 out_sel[5]
#30
b0 disp1_sel[5]
b1 disp1_sel[6]
b0 disp2_sel[5]
b1 disp2_sel[6]
b0 out_sel[5]
b1 out_sel[6]
#31
b0 disp1_sel[6]
b1 disp1_sel[7]
b0 disp2_sel[6]
b1 disp2_sel[7]
b0 out_sel[6]
b1 out_sel[7]
#32
b1 disp1_seg[1]
b1 disp1_seg[2]
b1 disp1_seg[3]
b1 disp1_seg[4]
b1 disp1_seg[5]
b1 disp1_seg[6]
b1 disp1_sel[0]
b0 disp1_sel[7]
b1 disp2_seg[1]
b1 disp2_seg[2]
b1 disp2_seg[3]
b1 disp2_seg[4]
b1 disp2_seg[5]
b1 disp2_seg[6]
b1 disp2_sel[0]
b0 disp2_sel[7]
b1 out_seg[1]
b1 out_seg[2]
b1 out_seg[3]
b1 out_seg[4]
b1 out_seg[5]
b1 out_seg[6]
b1 out_sel[0]
b0 out_sel[7]
#33
b0 disp1_sel[0]
b1 disp1_sel[1]
b0 disp2_sel[0]
b1 disp2_sel[1]
b0 out_sel[0]
b1 out_sel[1]
#34
b0 disp1_sel[1]
b1 disp1_sel[2]
b0 disp2_sel[1]
b1 disp2_sel[2]
b0 out_sel[1]
b1 out_sel[2]
#35
b0 disp1_sel[2]
b1 disp1_sel[3]
b0 disp2_sel[2]
b1 disp2_sel[3]
b0 out_sel[2]
b1 out_sel[3]
#36
b0 disp1_seg[1]
b0 disp1_seg[2]
b0 disp1_seg[3]
b0 disp1_seg[4]
b0 disp1_seg[5]
b0 disp1_seg[6]
b0 disp1_sel[3]
b1 disp1_sel[4]
b0 disp2_seg[1]
b0 disp2_seg[2]
b0 disp2_seg[3]
b0 disp2_seg[4]
b0 disp2_seg[5]
b0 disp2_seg[6]
b0 disp2_sel[3]
b1 disp2_sel[4]
b0 out_seg[1]
b0 out_seg[2]
b0 out_seg[3]
b0 out_seg[4]
b0 out_seg[5]
b0 out_seg[6]
b0 out_sel[3]
b1 out_sel[4]
#37
b0 disp1_sel[4]
b1 disp1_sel[5]
b0 disp2_sel[4]
b1 disp2_sel[5]
b0 out_sel[4]
b1 out_sel[5]
#38
b0 disp1_sel[5]
b1 disp1_sel[6]
b0 disp2_sel[5]
b1 disp2_sel[6]
b0 out_sel[5]
b1 out_sel[6]
#39
b0 disp1_sel[6]
b1 disp1_sel[7]
b0 disp2_sel[6]
b1 disp2_sel[7]
b0 out_sel[6]
b1 out_sel[7]
#40
b1 disp1_seg[1]
b1 disp1_seg[2]
b1 disp1_seg[3]
b1 disp1_seg[4]
b1 disp1_seg[5]
b1 disp1_seg[6]
b1 disp1_sel[0]
b0 disp1_sel[7]
b1 disp2_seg[1]
b1 disp2_seg[2]
b1 disp2_seg[3]
b1 disp2_seg[4]
b1 disp2_seg[5]
b1 disp2_seg[6]
b1 disp2_sel[0]
b0 disp2_sel[7]
b1 out_seg[1]
b1 out_seg[2]
b1 out_seg[3]
b1 out_seg[4]
b1 out_seg[5]
b1 out_seg[6]
b1 out_sel[0]
b0 out_sel[7]
#41
b0 disp1_sel[0]
b1 disp1_sel[1]
b0 disp2_sel[0]
b1 disp2_sel[1]
b0 out_sel[0]
b1 out_sel[1]
#42
b0 disp1_sel[1]
b1 disp1_sel[2]
b0 disp2_sel[1]
b1 disp2_sel[2]
b0 out_sel[1]
b1 out_sel[2]
#43
b0 disp1_sel[2]
b1 disp1_sel[3]
b0 disp2_sel[2]
b1 disp2_sel[3]
b0 out_sel[2]
b1 out_sel[3]
#44
b0 disp1_seg[1]
b0 disp1_seg[2]
b0 disp1_seg[3]
b0 disp1_seg[4]
b0 disp1_seg[5]
b0 disp1_seg[6]
b0 disp1_sel[3]
b1 disp1_sel[4]
b0 disp2_seg[1]
b0 disp2_seg[2]
b0 disp2_seg[3]
b0 disp2_seg[4]
b0 disp2_seg[5]
b0 disp2_seg[6]
b0 disp2_sel[3]
b1 disp2_sel[4]
b0 out_seg[1]
b0 out_seg[2]
b0 out_seg[3]
b0 out_seg[4]
b0 out_seg[5]
b0 out_seg[6]
b0 out_sel[3]
b1 out_sel[4]
#45
b0 disp1_sel[4]
b1 disp1_sel[5]
b0 disp2_sel[4]
b1 disp2_sel[5]
b0 out_sel[4]
b1 out_sel[5]
#46
b0 disp1_sel[5]
b1 disp1_sel[6]
b0 disp2_sel[5]
b1 disp2_sel[6]
b0 out_sel[5]
b1 out_sel[6]
#47
b0 disp1_sel[6]
b1 disp1_sel[7]
b0 disp2_sel[6]
b1 disp2_sel[7]
b0 out_sel[6]
b1 out_sel[7]
#48
b1 disp1_seg[1]
b1 disp1_seg[2]
b1 disp1_seg[3]
b1 disp1_seg[4]
b1 disp1_seg[5]
b1 disp1_seg[6]
b1 disp1_sel[0]
b0 disp1_sel[7]
b1 disp2_seg[1]
b1 disp2_seg[2]
b1 disp2_seg[3]
b1 disp2_seg[4]
b1 disp2_seg[5]
b1 disp2_seg[6]
b1 disp2_sel[0]
b0 disp2_sel[7]
b1 out_seg[1]
b1 out_seg[2]
b1 out_seg[3]
b1 out_seg[4]
b1 out_seg[5]
b1 out_seg[6]
b1 out_sel[0]
b0 out_sel[7]
#49
b0 disp1_sel[0]
b1 disp1_sel[1]
b0 disp2_sel[0]
b1 disp2_sel[1]
b0 out_sel[0]
b1 out_sel[1]
#50
b0 disp1_sel[1]
b1 disp1_sel[2]
b0 disp2_sel[1]
b1 disp2_sel[2]
b0 out_sel[1]
b1 out_sel[2]
#51
b0 disp1_sel[2]
b1 disp1_sel[3]
b0 disp2_sel[2]
b1 disp2_sel[3]
b0 out_sel[2]
b1 out_sel[3]
#52
b0 disp1_seg[1]
b0 disp1_seg[2]
b0 disp1_seg[3]
b0 disp1_seg[4]
b0 disp1_seg[5]
b0 disp1_seg[6]
b0 disp1_sel[3]
b1 disp1_sel[4]
b0 disp2_seg[1]
b0 disp2_seg[2]
b0 disp2_seg[3]
b0 disp2_seg[4]
b0 disp2_seg[5]
b0 disp2_seg[6]
b0 disp2_sel[3]
b1 disp2_sel[4]
b0 out_seg[1]
b0 out_seg[2]
b0 out_seg[3]
b0 out_seg[4]
b0 out_seg[5]
b0 out_seg[6]
b0 out_sel[3]
b1 out_sel[4]
#53
b0 disp1_sel[4]
b1 disp1_sel[5]
b0 disp2_sel[4]
b1 disp2_sel[5]
b0 out_sel[4]
b1 out_sel[5]
#54
b0 disp1_sel[5]
b1 disp1_sel[6]
b0 disp2_sel[5]
b1 disp2_sel[6]
b0 out_sel[5]
b1 out_sel[6]
#55
b0 disp1_sel[6]
b1 disp1_sel[7]
b0 disp2_sel[6]
b1 disp2_sel[7]
b0 out_sel[6]
b1 out_sel[7]
#56
b1 disp1_seg[1]
b1 disp1_seg[2]
b1 disp1_seg[3]
b1 disp1_seg[4]
b1 disp1_seg[5]
b1 disp1_seg[6]
b1 disp1_sel[0]
b0 disp1_sel[7]
b1 disp2_seg[1]
b1 disp2_seg[2]
b1 disp2_seg[3]
b1 disp2_seg[4]
b1 disp2_seg[5]
b1 disp2_seg[6]
b1 disp2_sel[0]
b0 disp2_sel[7]
b1 out_seg[1]
b1 out_seg[2]
b1 out_seg[3]
b1 out_seg[4]
b1 out_seg[5]
b1 out_seg[6]
b1 out_sel[0]
b0 out_sel[7]
#57
b0 disp1_sel[0]
b1 disp1_sel[1]
b0 disp2_sel[0]
b1 disp2_sel[1]
b0 out_sel[0]
b1 out_sel[1]
#58
b0 disp1_sel[1]
b1 disp1_sel[2]
b0 disp2_sel[1]
b1 disp2_sel[2]
b0 out_sel[1]
b1 out_sel[2]
#59
b0 disp1_sel[2]
b1 disp1_sel[3]
b0 disp2_sel[2]
b1 disp2_sel[3]
b0 out_sel[2]
b1 out_sel[3]
#60
b0 disp1_seg[1]
b0 disp1_seg[2]
b0 disp1_seg[3]
b0 disp1_seg[4]
b0 disp1_seg[5]
b0 disp1_seg[6]
b0 disp1_sel[3]
b1 disp1_sel[4]
b0 disp2_seg[1]
b0 disp2_seg[2]
b0 disp2_seg[3]
b0 disp2_seg[4]
b0 disp2_seg[5]
b0 disp2_seg[6]
b0 disp2_sel[3]
b1 disp2_sel[4]
b0 out_seg[1]
b0 out_seg[2]
b0 out_seg[3]
b0 out_seg[4]
b0 out_seg[5]
b0 out_seg[6]
b0 out_sel[3]
b1 out_sel[4]
#61
b0 disp1_sel[4]
b1 disp1_sel[5]
b0 disp2_sel[4]
b1 disp2_sel[5]
b0 out_sel[4]
b1 out_sel[5]
#62
b0 disp1_sel[5]
b1 disp1_sel[6]
b0 disp2_sel[5]
b1 disp2_sel[6]
b0 out_sel[5]
b1 out_sel[6]
#63
b0 disp1_sel[6]
b1 disp1_sel[7]
b0 disp2_sel[6]
b1 disp2_sel[7]
b0 out_sel[6]
b1 out_sel[7]
#64
b1 disp1_seg[1]
b1 disp1_seg[2]
b1 disp1_seg[3]
b1 disp1_seg[4]
b1 disp1_seg[5]
b1 disp1_seg[6]
b1 disp1_sel[0]
b0 disp1_sel[7]
b1 disp2_seg[1]
b1 disp2_seg[2]
b1 disp2_seg[3]
b1 disp2_seg[4]
b1 disp2_seg[5]
b1 disp2_seg[6]
b1 disp2_sel[0]
b0 disp2_sel[7]
b1 out_seg[1]
b1 out_seg[2]
b1 out_seg[3]
b1 out_seg[4]
b1 out_seg[5]
b1 out_seg[6]
b1 out_sel[0]
b0 out_sel[7]
#65
b0 disp1_sel[0]
b1 disp1_sel[1]
b0 disp2_sel[0]
b1 disp2_sel[1]
b0 out_sel[0]
b1 out_sel[1]
#66
b0 disp1_sel[1]
b1 disp1_sel[2]
b0 disp2_sel[1]
b1 disp2_sel[2]
b0 out_sel[1]
b1 out_sel[2]
#67
b0 disp1_sel[2]
b1 disp1_sel[3]
b0 disp2_sel[2]
b1 disp2_sel[3]
b0 out_sel[2]
b1 out_sel[3]
#68
b0 disp1_seg[1]
b0 disp1_seg[2]
b0 disp1_seg[3]
b0 disp1_seg[4]
b0 disp1_seg[5]
b0 disp1_seg[6]
b0 disp1_sel[3]
b1 disp1_sel[4]
b0 disp2_seg[1]
b0 disp2_seg[2]
b0 disp2_seg[3]
b0 disp2_seg[4]
b0 disp2_seg[5]
b0 disp2_seg[6]
b0 disp2_sel[3]
b1 disp2_sel[4]
b0 out_seg[1]
b0 out_seg[2]
b0 out_seg[3]
b0 out_seg[4]
b0 out_seg[5]
b0 out_seg[6]
b0 out_sel[3]
b1 out_sel[4]
#69
b0 disp1_sel[4]
b1 disp1_sel[5]
b0 disp2_sel[4]
b1 disp2_sel[5]
b0 out_sel[4]
b1 out_sel[5]
#70
b0 disp1_sel[5]
b1 disp1_sel[6]
b0 disp2_sel[5]
b1 disp2_sel[6]
b0 out_sel[5]
b1 out_sel[6]
#71
b0 disp1_sel[6]
b1 disp1_sel[7]
b0 disp2_sel[6]
b1 disp2_sel[7]
b0 out_sel[6]
b1 out_sel[7]
#72
b1 disp1_seg[1]
b1 disp1_seg[2]
b1 disp1_seg[3]
b1 disp1_seg[4]
b1 disp1_seg[5]
b1 disp1_seg[6]
b1 disp1_sel[0]
b0 disp1_sel[7]
b1 disp2_seg[1]
b1 disp2_seg[2]
b1 disp2_seg[3]
b1 disp2_seg[4]
b1 disp2_seg[5]
b1 disp2_seg[6]
b1 disp2_sel[0]
b0 disp2_sel[7]
b1 out_seg[1]
b1 out_seg[2]
b1 out_seg[3]
b1 out_seg[4]
b1 out_seg[5]
b1 out_seg[6]
b1 out_sel[0]
b0 out_sel[7]
#73
b0 disp1_sel[0]
b1 disp1_sel[1]
b0 disp2_sel[0]
b1 disp2_sel[1]
b0 out_sel[0]
b1 out_sel[1]
#74
b0 disp1_sel[1]
b1 disp1_sel[2]
b0 disp2_sel[1]
b1 disp2_sel[2]
b0 out_sel[1]
b1 out_sel[2]
#75
b0 disp1_sel[2]
b1 disp1_sel[3]
b0 disp2_sel[2]
b1 disp2_sel[3]
b0 out_sel[2]
b1 out_sel[3]
#76
b0 disp1_seg[1]
b0 disp1_seg[2]
b0 disp1_seg[3]
b0 disp1_seg[4]
b0 disp1_seg[5]
b0 disp1_seg[6]
b0 disp1_sel[3]
b1 disp1_sel[4]
b0 disp2_seg[1]
b0 disp2_seg[2]
b0 disp2_seg[3]
b0 disp2_seg[4]
b0 disp2_seg[5]
b0 disp2_seg[6]
b0 disp2_sel[3]
b1 disp2_sel[4]
b0 out_seg[1]
b0 out_seg[2]
b0 out_seg[3]
b0 out_seg[4]
b0 out_seg[5]
b0 out_seg[6]
b0 out_sel[3]
b1 out_sel[4]
#77
b0 disp1_sel[4]
b1 disp1_sel[5]
b0 disp2_sel[4]
b1 disp2_sel[5]
b0 out_sel[4]
b1 out_sel[5]
#78
b0 disp1_sel[5]
b1 disp1_sel[6]
b0 disp2_sel[5]
b1 disp2_sel[6]
b0 out_sel[5]
b1 out_sel[6]
b1 data_type
#79
b1 disp1_seg[1]
b1 disp1_seg[2]
b1 disp1_seg[3]
b1 disp1_seg[4]
b1 disp1_seg[5]
b1 disp1_seg[6]
b0 disp1_sel[6]
b1 disp1_sel[7]
b1 disp2_seg[1]
b1 disp2_seg[2]
b1 disp2_seg[3]
b1 disp2_seg[4]
b1 disp2_seg[5]
b1 disp2_seg[6]
b0 disp2_sel[6]
b1 disp2_sel[7]
b1 out_seg[1]
b1 out_seg[2]
b1 out_seg[3]
b1 out_seg[4]
b1 out_seg[5]
b1 out_seg[6]
b0 out_sel[6]
b1 out_sel[7]
#80
b1 disp1_sel[0]
b0 disp1_sel[7]
b1 disp2_sel[0]
b0 disp2_sel[7]
b1 out_sel[0]
b0 out_sel[7]
#81
b0 disp1_sel[0]
b1 disp1_sel[1]
b0 disp2_sel[0]
b1 disp2_sel[1]
b0 out_sel[0]
b1 out_sel[1]
#82
b0 disp1_sel[1]
b1 disp1_sel[2]
b0 disp2_sel[1]
b1 disp2_sel[2]
b0 out_sel[1]
b1 out_sel[2]
#83
b0 disp1_sel[2]
b1 disp1_sel[3]
b0 disp2_sel[2]
b1 disp2_sel[3]
b0 out_sel[2]
b1 out_sel[3]
#84
b0 disp1_sel[3]
b1 disp1_sel[4]
b0 disp2_sel[3]
b1 disp2_sel[4]
b0 out_sel[3]
b1 out_sel[4]
#85
b0 disp1_sel[4]
b1 disp1_sel[5]
b0 disp2_sel[4]
b1 disp2_sel[5]
b0 out_sel[4]
b1 out_sel[5]
#86
b0 disp1_sel[5]
b1 disp1_sel[6]
b0 disp2_sel[5]
b1 disp2_sel[6]
b0 out_sel[5]
b1 out_sel[6]
#87
b0 disp1_sel[6]
b1 disp1_sel[7]
b0 disp2_sel[6]
b1 disp2_sel[7]
b0 out_sel[6]
b1 out_sel[7]
#88
b1 disp1_sel[0]
b0 disp1_sel[7]
b1 disp2_sel[0]
b0 disp2_sel[7]
b1 out_sel[0]
b0 out_sel[7]
#89
b0 disp1_sel[0]
b1 disp1_sel[1]
b0 disp2_sel[0]
b1 disp2_sel[1]
b0 out_sel[0]
b1 out_sel[1]
#90
b0 disp1_sel[1]
b1 disp1_sel[2]
b0 disp2_sel[1]
b1 disp2_sel[2]
b0 out_sel[1]
b1 out_sel[2]
#91
b0 disp1_sel[2]
b1 disp1_sel[3]
b0 disp2_sel[2]
b1 disp2_sel[3]
b0 out_sel[2]
b1 out_sel[3]
#92
b0 disp1_sel[3]
b1 disp1_sel[4]
b0 disp2_sel[3]
b1 disp2_sel[4]
b0 out_sel[3]
b1 out_sel[4]
#93
b0 disp1_sel[4]
b1 disp1_sel[5]
b0 disp2_sel[4]
b1 disp2_sel[5]
b0 out_sel[4]
b1 out_sel[5]
#94
b0 disp1_sel[5]
b1 disp1_sel[6]
b0 disp2_sel[5]
b1 disp2_sel[6]
b0 out_sel[5]
b1 out_sel[6]
#95
b0 disp1_sel[6]
b1 disp1_sel[7]
b0 disp2_sel[6]
b1 disp2_sel[7]
b0 out_sel[6]
b1 out_sel[7]
#96
b1 disp1_sel[0]
b0 disp1_sel[7]
b1 disp2_sel[0]
b0 disp2_sel[7]
b1 out_sel[0]
b0 out_sel[7]
#97
b0 disp1_sel[0]
b1 disp1_sel[1]
b0 disp2_sel[0]
b1 disp2_sel[1]
b0 out_sel[0]
b1 out_sel[1]
#98
b0 disp1_sel[1]
b1 disp1_sel[2]
b0 disp2_sel[1]
b1 disp2_sel[2]
b0 out_sel[1]
b1 out_sel[2]
#99
b0 disp1_sel[2]
b1 disp1_sel[3]
b0 disp2_sel[2]
b1 disp2_sel[3]
b0 out_sel[2]
b1 out_sel[3]
#100
b0 disp1_sel[3]
b1 disp1_sel[4]
b0 disp2_sel[3]
b1 disp2_sel[4]
b0 out_sel[3]
b1 out_sel[4]
